<?xml version="1.0" encoding="UTF-8"?>
<Project>
   <description></description>
   <name>Graft</name>
   <tag></tag>
   <UUID>140d3868-f295-41bc-b31a-7faeb1c88050</UUID>
   <migratedVersion>5.4.0</migratedVersion>
   <pageLoadTimeout>0</pageLoadTimeout>
</Project>
